%YAML 1.1
%TAG !u! tag:unity3d.com,2011:
--- !u!21 &2100000
Material:
  serializedVersion: 6
  m_ObjectHideFlags: 0
  m_CorrespondingSourceObject: {fileID: 0}
  m_PrefabInstance: {fileID: 0}
  m_PrefabAsset: {fileID: 0}
  m_Name: ShaderGraph Unlit + Clouds
  m_Shader: {fileID: -6465566751694194690, guid: 8473d1b4e899346d3acd55e8413eacfc,
    type: 3}
  m_ShaderKeywords: 
  m_LightmapFlags: 4
  m_EnableInstancingVariants: 0
  m_DoubleSidedGI: 0
  m_CustomRenderQueue: -1
  stringTagMap: {}
  disabledShaderPasses: []
  m_SavedProperties:
    serializedVersion: 3
    m_TexEnvs:
    - Texture2D_17C2286B:
        m_Texture: {fileID: 2800000, guid: c59897ef4e3c0409cb07b03f9f458fad, type: 3}
        m_Scale: {x: 1, y: 1}
        m_Offset: {x: 0, y: 0}
    m_Floats:
    - Vector1_22B55E93: 0.09
    - Vector1_36FE4F62: 28.4
    - Vector1_D866FC62: 0.05
    - _PanSpeed: 0.03
    - _Spherify: 1
    m_Colors: []
